{
  "products": [
    {
      "id": 1,
      "name": "headphone",
      "category_id": "1",
      "description": "Product description goes here",
      "price": "100",
      "is_available": true,
      "product_img": "http://localhost:4200/assets/images/headphone.jfif",
      "rating": 4,
      "reviews": 120,
      "vendor_name": "Seller 1",
      "color": "red",
      "warranty": 2
    },
    {
      "id": 4,
      "name": "TV",
      "category_id": "1",
      "description": "Product description goes here",
      "product_img": "http://localhost:4200/assets/images/tv.jfif",
      "price": "400",
      "is_available": true,
      "rating": 1,
      "color": "red",
      "reviews": 340,
      "vendor_name": "Seller 4",
      "warranty": 2
    },
    {
      "id": 5,
      "name": "Party Shirts",
      "category_id": "4",
      "description": "Product description goes here",
      "product_img": "http://localhost:4200/assets/images/men3.jpg",
      "price": "400",
      "is_available": true,
      "rating": 1,
      "color": "red",
      "reviews": 340,
      "vendor_name": "Seller 4",
      "warranty": 2
    },
    {
      "id": 7,
      "name": "Formal Shirts",
      "category_id": "4",
      "description": "Product description goes here",
      "product_img": "http://localhost:4200/assets/images/men3.jfif",
      "price": "300",
      "is_available": true,
      "rating": 2.5,
      "color": "red",
      "reviews": 340,
      "vendor_name": "Seller 4",
      "warranty": 2
    },
    {
      "id": 8,
      "name": "Sports shirts",
      "category_id": "4",
      "description": "Product description goes here",
      "product_img": "http://localhost:4200/assets/images/men4.jpg",
      "price": "450",
      "color": "red",
      "is_available": true,
      "rating": 4.5,
      "reviews": 340,
      "vendor_name": "Seller 4",
      "warranty": 2
    },
    {
      "id": 9,
      "name": "Kurties",
      "category_id": "5",
      "description": "Product description goes here",
      "product_img": "http://localhost:4200/assets/images/women1.jpg",
      "price": "550",
      "color": "red",
      "is_available": true,
      "rating": 4.5,
      "reviews": 340,
      "vendor_name": "Seller 4",
      "warranty": 2
    },
    {
      "id": 10,
      "name": "Crop Hoodies",
      "category_id": "5",
      "description": "Product description goes here",
      "product_img": "http://localhost:4200/assets/images/women2.jpg",
      "price": "550",
      "color": "red",
      "is_available": true,
      "rating": 4.5,
      "reviews": 340,
      "vendor_name": "Seller 4",
      "warranty": 1
    },
    {
      "id": 11,
      "name": "Western Top",
      "category_id": "5",
      "description": "Product description goes here",
      "product_img": "http://localhost:4200/assets/images/women3.jpg",
      "price": "250",
      "color": "red",
      "is_available": true,
      "rating": 4.5,
      "reviews": 340,
      "vendor_name": "Seller 4",
      "warranty": 1
    },
    {
      "name": "Flat Jeans",
      "category_id": "5",
      "description": "Product description goes here",
      "rating": 4.5,
      "warranty": 1.5,
      "product_img": "http://localhost:4200/assets/images/women4.jpg",
      "color": "red",
      "is_available": true,
      "price": "550",
      "reviews": 340,
      "id": 12
    },
    {
      "name": "hhj",
      "category_id": "1",
      "description": "hjhj",
      "rating": "3",
      "product_img": "C:\\fakepath\\tv.jfif",
      "color": "yellow",
      "is_available": "True",
      "price": "888",
      "reviews": "4",
      "id": 13
    }
  ],
  "categories": [
    {
      "id": 1,
      "name": "Electronics"
    },
    {
      "id": 4,
      "name": "Mens Wear"
    },
    {
      "id": 5,
      "name": "Womenka"
    }
  ],
  "profile": {
    "name": "typicode"
  }
}